{
  "id": "salvage-union",
  "name": "salvage-union",
  "title": "Salvage Union (Unofficial)",
  "description": "Unofficial system for Salvage Union",
  "authors": [
    {
      "name": "demondownload",
      "url": "https://dice.camp/@aniki21",
      "discord": "demondownload#5359",
      "ko-fi": "demondownload"
    },
    {
      "name": "Stexinator",
      "url": "https://gitlab.com/Stexinator"
    }
  ],
  "version": "1.2.3",
  "url": "https://gitlab.com/pacosgrove1/salvage-union-foundry-vtt-unofficial",
  "manifest": "https://gitlab.com/api/v4/projects/pacosgrove1%2Fsalvage-union-foundry-vtt-unofficial/packages/generic/salvage-union/latest/system.json",
  "download": "https://gitlab.com/pacosgrove1/salvage-union-foundry-vtt-unofficial/-/releases/v1.2.3/downloads/salvage-union-v1.2.3.zip",

  "compatibility": {
    "minimum": "11",
    "verified": "12",
    "maximum": "12"
  },
  "media": [
    {
      "type": "setup",
      "url": "systems/salvage-union/images/setup.webp",
      "thumbnail": "systems/salvage-union/images/setup.webp"
    }
  ],
  "esmodules": ["salvage-union.js"],
  "styles": ["styles/salvage-union.css"],
  "packs": [
    {
      "name": "tables",
      "label": "SU - Rollable Tables",
      "system": "salvage-union",
      "path": "packs/tables",
      "type": "RollTable",
      "banner": "systems/salvage-union/images/banners/macro.webp"
    },
    {
      "name": "macros",
      "label": "SU - Macros",
      "system": "salvage-union",
      "path": "packs/macros",
      "type": "Macro",
      "banner": "systems/salvage-union/images/banners/macro.webp"
    },
    {
      "name": "systems",
      "label": "SU - Mech Systems",
      "system": "salvage-union",
      "path": "packs/systems",
      "type": "Item",
      "banner": "systems/salvage-union/images/banners/system.webp"
    },
    {
      "name": "modules",
      "label": "SU - Mech Modules",
      "system": "salvage-union",
      "path": "packs/modules",
      "type": "Item",
      "banner": "systems/salvage-union/images/banners/module.webp"
    },
    {
      "name": "chassis",
      "label": "SU - Mech Chassis",
      "system": "salvage-union",
      "path": "packs/chassis",
      "type": "Item",
      "banner": "systems/salvage-union/images/banners/chassis.webp"
    },
    {
      "name": "equipment",
      "label": "SU - Pilot Equipment",
      "system": "salvage-union",
      "path": "packs/equipment",
      "type": "Item",
      "banner": "systems/salvage-union/images/banners/equipment.webp"
    },
    {
      "name": "crawler",
      "label": "SU - Union Crawler Items",
      "system": "salvage-union",
      "path": "packs/crawler",
      "type": "Item",
      "banner": "systems/salvage-union/images/banners/crawler-bay.webp"
    },
    {
      "name": "abilities",
      "label": "SU - Pilot Abilities",
      "system": "salvage-union",
      "path": "packs/abilities",
      "type": "Item",
      "banner": "systems/salvage-union/images/banners/ability.webp"
    },
    {
      "name": "actors",
      "label": "SU - Actors",
      "system": "salvage-union",
      "path": "packs/actors",
      "type": "Actor",
      "banner": "systems/salvage-union/images/banners/actor.webp"
    },
    {
      "name": "journals",
      "label": "SU - Journals",
      "system": "salvage-union",
      "path": "packs/journals",
      "type": "JournalEntry",
      "banner": "systems/salvage-union/images/banners/journal.webp"
    }
  ],
  "languages": [
    {
      "lang": "en",
      "name": "English (US)",
      "path": "lang/en.json"
    }
  ],
  "initiative": "1d20"
}
